Sara A. Stoudt
…
Mystery #1

This mystery comes from Week 7 of Tidy Tuesday, the dreaded barplots. I’m hiding the process code to streamline the post, but if you want to see it, go here. The gist of it, is that I want the order of the side by side bars to be consistent within category.

The key is to pre-arrange the data to follow the order that we want to plot it in.

g1 doesn’t work, but g2, g3, and g4 do.

Key: It turns out that the tibble format isn’t the issue per se, it is tibble’s lazy evaluation (and ggplot’s) that is the real issue. This is analogous to why you need aes_string instead of aes when you are passing in a variable name to ggplot in a custom made function. The rearranging doesn’t actually happen until wrapped in another function that evaulates it.

toPlot

## # A tibble: 47 x 7
## # Groups:   Gender, Age [8]
##    Gender Age   V28                     count.x count.y percent genderAge 
##    <fct>  <fct> <fct>                     <int>   <int>   <dbl> <fct>     
##  1 Female > 60  Unfamiliar (N/A)             37      94  0.394  Female > …
##  2 Female > 60  Very unfavorably              2      94  0.0213 Female > …
##  3 Female > 60  Somewhat unfavorably          1      94  0.0106 Female > …
##  4 Female > 60  Neither favorably nor …      24      94  0.255  Female > …
##  5 Female > 60  Somewhat favorably           16      94  0.170  Female > …
##  6 Female > 60  Very favorably               14      94  0.149  Female > …
##  7 Female 18-29 Unfamiliar (N/A)             10      85  0.118  Female 18…
##  8 Female 18-29 Very unfavorably              3      85  0.0353 Female 18…
##  9 Female 18-29 Somewhat unfavorably          6      85  0.0706 Female 18…
## 10 Female 18-29 Neither favorably nor …      18      85  0.212  Female 18…
## # ... with 37 more rows
…
