Sara A. Stoudt
…
Which album is most like the average five-star Bay Area album? Dave Brubeck’s “Time Out”

This isn’t particularly suprising has Brubeck has the third highest number of albums on the five-star list.

test=as.matrix(dist(toP[,-1]))

#toP[which.min(test[nrow(toP),-ncol(test)]),]

dataINeed %>% group_by(album_id) %>% summarise(count=n(),artist=artist_name[1])  %>% group_by(artist) %>% summarise(count=n()) %>% arrange(desc(count))

## # A tibble: 24 x 2
##    artist                   count
##    <chr>                    <int>
##  1 vince guaraldi trio          9
##  2 lorraine hunt lieberson      8
##  3 the dave brubeck quartet     6
##  4 leon fleisher                5
##  5 moby grape                   5
##  6 david murray                 3
##  7 san francisco symphony       3
##  8 chanticleer                  2
##  9 grateful dead                2
## 10 green day                    2
## # … with 14 more rows
…
