Sara A. Stoudt
…
proj4string(pts)=proj4string(us_pumas) ## this is needed for over

withinContinental=over(pts,us_pumas)

byState=group_by(withinContinental, STATEFP10) %>% summarise(count=n()) 
byState=byState %>% mutate(STATEFP10=as.numeric(STATEFP10))
byState=inner_join(byState,fips.state,by=c("STATEFP10"="STATE"))%>% arrange(desc(count))

I’m curious if the males participating on The Bachelorette are from the same types of places. It seems to me like small town southern girls are more represented than small town southern boys, but I want to test this theory. Let’s filter for the South to at least start getting a sense.

byState

## # A tibble: 39 x 5
##    STATEFP10 count STUSAB STATE_NAME   STATENS
##        <dbl> <int> <chr>  <chr>          <int>
##  1        6.    46 CA     California   1779778
##  2       48.    37 TX     Texas        1779801
##  3       12.    27 FL     Florida       294478
##  4       36.    21 NY     New York     1779796
##  5       17.    19 IL     Illinois     1779784
##  6       26.    13 MI     Michigan     1779789
##  7       42.    12 PA     Pennsylvania 1779798
##  8        4.    11 AZ     Arizona      1779777
##  9       47.    10 TN     Tennessee    1325873
## 10       49.    10 UT     Utah         1455989
## # ... with 29 more rows
…
