Sara A. Stoudt
…
toCompare = c("colder than mars", "colder than a witch's tit", "cold as heck", "colder than a mf", "cold as a bitch", "cold as balls", "cold as tits", "cold as fuck", "colder than my heart", "colder than a bitch", "cold as a mf", "cold as hell", "cold as ice", "hot as heck", "hotter than two rats", "hot as balls", "hotter than hell", "hot as tits", "hot as hell", "hot as fuck", "hot as shit", "hotter than satan's asshole", "hot as a mf", "hot as a bitch", "hotter than a mf", "hot as hades", "hot as dick")

We can use fct_other to lump all the other phrases into an “Other” category.

data$phrase <- fct_other(data$phrase, keep = toCompare)

Some regions don’t have every phrase, but I want that to be explicit in the data, so we break out our new friend tidyr. You can read more about my adventures with tidyr here.

data <- left_join(expand(data,phrase,region),data,c("phrase"="phrase","region"="region"))
               
res <- data %>% group_by(phrase,region) %>% summarise(medAppT = median(apparentTemperature, na.rm = T), count = n()) 

data %>% group_by(phrase) %>% summarise(medAppT = median(apparentTemperature, na.rm = T),count = n()) %>% arrange(medAppT)

## # A tibble: 28 x 3
##    phrase                    medAppT count
##    <fct>                       <dbl> <int>
##  1 colder than mars            -7.36    12
##  2 colder than a witch's tit   24.9     38
##  3 cold as heck                28.3     39
##  4 colder than a mf            33.2     16
##  5 cold as a bitch             36.5     43
##  6 cold as balls               36.6     78
##  7 cold as tits                40.5     24
##  8 cold as fuck                40.7    623
##  9 colder than my heart        41.8     19
## 10 colder than a bitch         44.3     14
## # ... with 18 more rows
…
